GISD - German Index of Socio-Economic Deprivation_Revision 2022
…
Missing_on_Imputationsvars <- Workfile %>%  filter(is.na(Arbeitslosigkeit) |is.na(SchulabgaengerohneAbschluss))
Missing_on_Imputationsvars

## # A tibble: 976 x 17
##    Gemeindekennziffer Kreis Gemeindeverband  Jahr Bevoelkerung Bruttoverdienst
##                 <dbl> <dbl>           <dbl> <dbl>        <dbl>           <dbl>
##  1            3159001  3159         3159001  2001        62.9            2028.
##  2            3159002  3159         3159002  2001        83.4            2028.
##  3            3159003  3159         3159003  2001       103.             2028.
##  4            3159004  3159         3159004  2001        73.5            2028.
##  5            3159005  3159         3159902  2001        22.2            2028.
##  6            3159006  3159         3159902  2001         7.90           2028.
##  7            3159007  3159         3159007  2001       136.             2028.
##  8            3159008  3159         3159901  2001         5.30           2028.
##  9            3159009  3159         3159901  2001        43.7            2028.
## 10            3159010  3159         3159010  2001       205.             2028.
## # ... with 966 more rows, and 11 more variables:
## #   BeschaeftigtemitakadAbschluss <dbl>, BeschaeftigteohneAbschluss <dbl>,
## #   SchulabgaengermitHochschulreife <dbl>, SchulabgaengerohneAbschluss <dbl>,
## #   Haushaltseinkommen <dbl>, Schuldnerquote <dbl>, Einkommensteuer <dbl>,
## #   Arbeitslosigkeit <dbl>, Beschaeftigtenquote <dbl>,
## #   BevoelkerungmitakadAbschluss <dbl>, BevoelkerungohneAbschluss <dbl>

# Flle betrachten: Beispiel 13075152 
TimeSeries_for_Missing <- Workfile %>%  filter(Gemeindekennziffer==13075152) %>% arrange(Gemeindekennziffer, Jahr, Bevoelkerung)
TimeSeries_for_Missing

## # A tibble: 22 x 17
##    Gemeindekennziffer Kreis Gemeindeverband  Jahr Bevoelkerung Bruttoverdienst
##                 <dbl> <dbl>           <dbl> <dbl>        <dbl>           <dbl>
##  1           13075152 13075        13075962  1998         5.60             NA 
##  2           13075152 13075        13075962  1999         5.60             NA 
##  3           13075152 13075        13075962  2000         5.60           1547.
##  4           13075152 13075        13075962  2001         5.60           1580.
##  5           13075152 13075        13075962  2002         5.60           1611.
##  6           13075152 13075        13075962  2003         5.60           1628.
##  7           13075152 13075        13075962  2004         5.60           1627.
##  8           13075152 13075        13075962  2005         5.60           1652.
##  9           13075152 13075        13075962  2006         5.60           1630.
## 10           13075152 13075        13075962  2007         5.60           1654.
## # ... with 12 more rows, and 11 more variables:
## #   BeschaeftigtemitakadAbschluss <dbl>, BeschaeftigteohneAbschluss <dbl>,
## #   SchulabgaengermitHochschulreife <dbl>, SchulabgaengerohneAbschluss <dbl>,
## #   Haushaltseinkommen <dbl>, Schuldnerquote <dbl>, Einkommensteuer <dbl>,
## #   Arbeitslosigkeit <dbl>, Beschaeftigtenquote <dbl>,
## #   BevoelkerungmitakadAbschluss <dbl>, BevoelkerungohneAbschluss <dbl>

# Flle betrachten: 16063104
TimeSeries_for_Missing <- Workfile %>%  filter(Gemeindekennziffer==16063104) %>% arrange(Gemeindekennziffer, Jahr, Bevoelkerung)
TimeSeries_for_Missing

## # A tibble: 22 x 17
##    Gemeindekennziffer Kreis Gemeindeverband  Jahr Bevoelkerung Bruttoverdienst
##                 <dbl> <dbl>           <dbl> <dbl>        <dbl>           <dbl>
##  1           16063104 16063        16063104  1998         47.3             NA 
##  2           16063104 16063        16063104  1999         47.3             NA 
##  3           16063104 16063        16063104  2000         47.3           1573.
##  4           16063104 16063        16063104  2001         47.3           1640.
##  5           16063104 16063        16063104  2002         47.3           1691.
##  6           16063104 16063        16063104  2003         47.3           1719.
##  7           16063104 16063        16063104  2004         47.3           1734.
##  8           16063104 16063        16063104  2005         47.3           1750.
##  9           16063104 16063        16063104  2006         47.3           1803.
## 10           16063104 16063        16063104  2007         47.3           1843.
## # ... with 12 more rows, and 11 more variables:
## #   BeschaeftigtemitakadAbschluss <dbl>, BeschaeftigteohneAbschluss <dbl>,
## #   SchulabgaengermitHochschulreife <dbl>, SchulabgaengerohneAbschluss <dbl>,
## #   Haushaltseinkommen <dbl>, Schuldnerquote <dbl>, Einkommensteuer <dbl>,
## #   Arbeitslosigkeit <dbl>, Beschaeftigtenquote <dbl>,
## #   BevoelkerungmitakadAbschluss <dbl>, BevoelkerungohneAbschluss <dbl>
…
Problemfall_2012 <- Workfile %>% filter(Gemeindekennziffer == 1054088) %>% select(Jahr, BeschaeftigteohneAbschluss, BeschaeftigtemitakadAbschluss)
Problemfall_2012

## # A tibble: 22 x 3
##     Jahr BeschaeftigteohneAbschluss BeschaeftigtemitakadAbschluss
##    <dbl>                      <dbl>                         <dbl>
##  1  1998                       NA                           NA   
##  2  1999                       NA                           NA   
##  3  2000                       NA                           NA   
##  4  2001                       NA                           NA   
##  5  2002                       13                            4.35
##  6  2003                       12.8                          4.72
##  7  2004                       12.6                          4.91
##  8  2005                       12.5                          5.31
##  9  2006                       12.4                          5.53
## 10  2007                       12.4                          5.67
## # ... with 12 more rows

# Check der Interpolation
TimeSeries <- Workfile %>%  filter(Gemeindekennziffer==13075152) %>% arrange(Gemeindekennziffer, Jahr, Bevoelkerung)
TimeSeries

## # A tibble: 22 x 17
##    Gemeindekennziffer Kreis Gemeindeverband  Jahr Bevoelkerung Bruttoverdienst
##                 <dbl> <dbl>           <dbl> <dbl>        <dbl>           <dbl>
##  1           13075152 13075        13075962  1998         5.60             NA 
##  2           13075152 13075        13075962  1999         5.60             NA 
##  3           13075152 13075        13075962  2000         5.60           1547.
##  4           13075152 13075        13075962  2001         5.60           1580.
##  5           13075152 13075        13075962  2002         5.60           1611.
##  6           13075152 13075        13075962  2003         5.60           1628.
##  7           13075152 13075        13075962  2004         5.60           1627.
##  8           13075152 13075        13075962  2005         5.60           1652.
##  9           13075152 13075        13075962  2006         5.60           1630.
## 10           13075152 13075        13075962  2007         5.60           1654.
## # ... with 12 more rows, and 11 more variables:
## #   BeschaeftigtemitakadAbschluss <dbl>, BeschaeftigteohneAbschluss <dbl>,
## #   SchulabgaengermitHochschulreife <dbl>, SchulabgaengerohneAbschluss <dbl>,
## #   Haushaltseinkommen <dbl>, Schuldnerquote <dbl>, Einkommensteuer <dbl>,
## #   Arbeitslosigkeit <dbl>, Beschaeftigtenquote <dbl>,
## #   BevoelkerungmitakadAbschluss <dbl>, BevoelkerungohneAbschluss <dbl>
…
## # A tibble: 1 x 17
##   Gemeindekennziffer Kreis Gemeindeverband  Jahr Bevoelkerung Bevoelkerungmitak~
##                <dbl> <dbl>           <dbl> <dbl>        <dbl>              <dbl>
## 1           16071103 16071        16071103  2019         65.1               28.3
## # ... with 11 more variables: BevoelkerungohneAbschluss <dbl>,
## #   Arbeitslosigkeit <dbl>, BeschaeftigtemitakadAbschluss <dbl>,
## #   Beschaeftigtenquote <dbl>, BeschaeftigteohneAbschluss <dbl>,
## #   Bruttoverdienst <dbl>, Einkommensteuer <dbl>, Haushaltseinkommen <dbl>,
## #   SchulabgaengermitHochschulreife <dbl>, SchulabgaengerohneAbschluss <dbl>,
## #   Schuldnerquote <dbl>

Problemfall_2012 <- Impdata.imputed %>% filter(Gemeindekennziffer == 1054088) %>% select(Jahr, BeschaeftigteohneAbschluss, BeschaeftigtemitakadAbschluss)
Problemfall_2012

## # A tibble: 22 x 3
##     Jahr BeschaeftigteohneAbschluss BeschaeftigtemitakadAbschluss
##    <dbl>                      <dbl>                         <dbl>
##  1  1998                       15.2                          4.73
##  2  1999                       15.0                          4.84
##  3  2000                       14.7                          4.94
##  4  2001                       14.4                          5.04
##  5  2002                       13                            4.35
##  6  2003                       12.8                          4.72
##  7  2004                       12.6                          4.91
##  8  2005                       12.5                          5.31
##  9  2006                       12.4                          5.53
## 10  2007                       12.4                          5.67
## # ... with 12 more rows

# Flle betrachten: 16063104
TimeSeries_for_Missing <- Impdata.imputed %>%  filter(Gemeindekennziffer==16071103) %>% arrange(Gemeindekennziffer, Jahr, Bevoelkerung)
TimeSeries_for_Missing

## # A tibble: 22 x 17
##    Gemeindekennziffer Kreis Gemeindeverband  Jahr Bevoelkerung Bevoelkerungmita~
##                 <dbl> <dbl>           <dbl> <dbl>        <dbl>             <dbl>
##  1           16071103 16071        16071103  1998         65.1              25.0
##  2           16071103 16071        16071103  1999         65.1              25.3
##  3           16071103 16071        16071103  2000         65.1              30.5
##  4           16071103 16071        16071103  2001         65.1              29.9
##  5           16071103 16071        16071103  2002         65.1              28.6
##  6           16071103 16071        16071103  2003         65.1              29.2
##  7           16071103 16071        16071103  2004         65.1              30.8
##  8           16071103 16071        16071103  2005         65.1              30.2
##  9           16071103 16071        16071103  2006         65.1              27.3
## 10           16071103 16071        16071103  2007         65.1              27  
## # ... with 12 more rows, and 11 more variables:
## #   BevoelkerungohneAbschluss <dbl>, Arbeitslosigkeit <dbl>,
## #   BeschaeftigtemitakadAbschluss <dbl>, Beschaeftigtenquote <dbl>,
## #   BeschaeftigteohneAbschluss <dbl>, Bruttoverdienst <dbl>,
## #   Einkommensteuer <dbl>, Haushaltseinkommen <dbl>,
## #   SchulabgaengermitHochschulreife <dbl>, SchulabgaengerohneAbschluss <dbl>,
## #   Schuldnerquote <dbl>
…
