…
```r
Missing_on_Imputationsvars <- Workfile %>%  filter(Jahr>=1998, Bevoelkerung>0, is.na(Arbeitslosigkeit) | is.na(SchulabgaengermitHochschulreife))
Missing_on_Imputationsvars
```

```
## # A tibble: 42 x 15
##    Gemeindekennzif~ Kreis Gemeindeverband  Jahr Bevoelkerung Bruttoverdienst
##               <dbl> <dbl>           <dbl> <dbl>        <dbl>           <dbl>
##  1          5154028  5154         5154028  2016        12458           2284.
##  2          5554052  5554         5554052  2016         7066           2399.
##  3          5762004  5762         5762004  2016        18930           2300.
##  4          5762012  5762         5762012  2016         8669           2300.
##  5          5962016  5962         5962016  2016        34016           2785.
##  6          5978036  5978         5978036  2016        57158           2567.
##  7          9471111  9471         9471111  2016         2101           2492.
##  8          9471115  9471         9471901  2016         4056           2492.
##  9          9471117  9471         9471117  2016         6080           2492.
## 10          9471119  9471         9471119  2016         4541           2492.
## # ... with 32 more rows, and 9 more variables:
## #   BeschaeftigtemitakadAbschluss <dbl>, BeschaeftigteohneAbschluss <dbl>,
## #   SchulabgaengermitHochschulreife <dbl>, SchulabgaengerohneAbschluss <dbl>,
## #   Haushaltseinkommen <dbl>, Schuldnerquote <dbl>, Arbeitslosigkeit <dbl>,
## #   Beschaeftigtenquote <dbl>, Einkommensteuer <dbl>
```
…
